…
unzip("activity.zip")
```


### Reading the file into a dataset and converting it into a tibble 


```r
activity<-read.csv("activity.csv")
activity<-tbl_df(activity)
activity
```

```
## # A tibble: 17,568 x 3
##    steps date       interval
##    <int> <fct>         <int>
##  1    NA 2012-10-01        0
##  2    NA 2012-10-01        5
##  3    NA 2012-10-01       10
##  4    NA 2012-10-01       15
##  5    NA 2012-10-01       20
##  6    NA 2012-10-01       25
##  7    NA 2012-10-01       30
##  8    NA 2012-10-01       35
##  9    NA 2012-10-01       40
## 10    NA 2012-10-01       45
## # ... with 17,558 more rows
```
…
## What is the mean total number of steps taken per day? 

### Step1: Summing up steps for each day
For that we have to first group our dataset by each day, and then sum the steps for each day by either ignoring the steps given as NA or taking them as zero. For this we employ group_by,summarise and sum function, along with na.rm=TRUE.


```r
sum_steps<-group_by(activity,date)%>%
  summarise(sum_day=sum(steps,na.rm=TRUE))
sum_steps
```

```
## # A tibble: 61 x 2
##    date       sum_day
##    <date>       <int>
##  1 2012-10-01       0
##  2 2012-10-02     126
##  3 2012-10-03   11352
##  4 2012-10-04   12116
##  5 2012-10-05   13294
##  6 2012-10-06   15420
##  7 2012-10-07   11015
##  8 2012-10-08       0
##  9 2012-10-09   12811
## 10 2012-10-10    9900
## # ... with 51 more rows
```
…
